<?xml version="1.0" encoding="UTF-8"?>
<svg xmlns="http://www.w3.org/2000/svg" xmlns:xlink="http://www.w3.org/1999/xlink" width="104pt" height="39pt" viewBox="0 0 104 39" version="1.1">
<defs>
<clipPath id="clip1">
  <path d="M 40.128906 0.699219 L 82 0.699219 L 82 33.898438 L 40.128906 33.898438 Z M 40.128906 0.699219 "/>
</clipPath>
</defs>
<g id="surface36058">
<g clip-path="url(#clip1)" clip-rule="nonzero">
<path style=" stroke:none;fill-rule:evenodd;fill:rgb(41.176471%,43.137255%,100%);fill-opacity:1;" d="M 67.839844 6.984375 C 78.699219 14.585938 84.417969 25.148438 80.617188 30.578125 C 76.816406 36.007812 64.933594 34.246094 54.074219 26.644531 C 43.214844 19.039062 37.496094 8.476562 41.296875 3.046875 C 45.097656 -2.382812 56.980469 -0.617188 67.839844 6.984375 Z M 67.839844 6.984375 "/>
</g>
<path style=" stroke:none;fill-rule:evenodd;fill:rgb(62.745098%,12.54902%,94.117647%);fill-opacity:1;" d="M 64.171875 7.25 C 66.03125 14.1875 55.429688 23.054688 40.492188 27.054688 C 25.554688 31.058594 11.941406 28.679688 10.082031 21.746094 C 8.222656 14.808594 18.824219 5.945312 33.761719 1.941406 C 48.699219 -2.0625 62.316406 0.316406 64.171875 7.25 Z M 64.171875 7.25 "/>
<path style=" stroke:none;fill-rule:evenodd;fill:rgb(62.745098%,12.54902%,94.117647%);fill-opacity:1;" d="M 102 22.949219 C 102 29.578125 79.613281 34.949219 52 34.949219 C 24.386719 34.949219 2 29.578125 2 22.949219 C 2 16.320312 24.386719 10.949219 52 10.949219 C 79.613281 10.949219 102 16.320312 102 22.949219 Z M 102 22.949219 "/>
<path style=" stroke:none;fill-rule:evenodd;fill:rgb(62.745098%,12.54902%,94.117647%);fill-opacity:1;" d="M 104 26.949219 C 104 31.367188 96.835938 34.949219 88 34.949219 C 79.164062 34.949219 72 31.367188 72 26.949219 C 72 22.53125 79.164062 18.949219 88 18.949219 C 96.835938 18.949219 104 22.53125 104 26.949219 Z M 104 26.949219 "/>
<path style=" stroke:none;fill-rule:evenodd;fill:rgb(62.745098%,12.54902%,94.117647%);fill-opacity:1;" d="M 32 26.949219 C 32 31.367188 24.835938 34.949219 16 34.949219 C 7.164062 34.949219 0 31.367188 0 26.949219 C 0 22.53125 7.164062 18.949219 16 18.949219 C 24.835938 18.949219 32 22.53125 32 26.949219 Z M 32 26.949219 "/>
<path style=" stroke:none;fill-rule:nonzero;fill:rgb(62.745098%,12.54902%,94.117647%);fill-opacity:1;" d="M 28 20.28125 C 28 20.28125 76 20.28125 76 20.28125 C 76 20.28125 76 36.28125 76 36.28125 C 76 36.28125 28 36.28125 28 36.28125 C 28 36.28125 28 20.28125 28 20.28125 Z M 28 20.28125 "/>
<path style=" stroke:none;fill-rule:evenodd;fill:rgb(0%,0%,0%);fill-opacity:1;" d="M 84 30.949219 C 84 35.367188 80.417969 38.949219 76 38.949219 C 71.582031 38.949219 68 35.367188 68 30.949219 C 68 26.53125 71.582031 22.949219 76 22.949219 C 80.417969 22.949219 84 26.53125 84 30.949219 Z M 84 30.949219 "/>
<path style=" stroke:none;fill-rule:evenodd;fill:rgb(0%,0%,0%);fill-opacity:1;" d="M 36 30.949219 C 36 35.367188 32.417969 38.949219 28 38.949219 C 23.582031 38.949219 20 35.367188 20 30.949219 C 20 26.53125 23.582031 22.949219 28 22.949219 C 32.417969 22.949219 36 26.53125 36 30.949219 Z M 36 30.949219 "/>
</g>
</svg>
